{
  "response": {
    "players": [
      {
        "steamid": "76561198027123396",
        "communityvisibilitystate": 3,
        "profilestate": 1,
        "personaname": "Johnix CSGOROOT.COM",
        "lastlogoff": 1494286114,
        "commentpermission": 1,
        "profileurl": "http://steamcommunity.com/id/johnix1337/",
        "avatar": "https://steamcdn-a.akamaihd.net/steamcommunity/public/images/avatars/73/739c59b91e9f2839c72375764b37dd8636a3bd4f.jpg",
        "avatarmedium": "https://steamcdn-a.akamaihd.net/steamcommunity/public/images/avatars/73/739c59b91e9f2839c72375764b37dd8636a3bd4f_medium.jpg",
        "avatarfull": "https://steamcdn-a.akamaihd.net/steamcommunity/public/images/avatars/73/739c59b91e9f2839c72375764b37dd8636a3bd4f_full.jpg",
        "personastate": 0,
        "realname": "Jan",
        "primaryclanid": "103582791439702413",
        "timecreated": 1277734310,
        "personastateflags": 0,
        "loccountrycode": "DE",
        "locstatecode": "02",
        "loccityid": 13934
      },
      {
        "steamid": "76561198027123396",
        "communityvisibilitystate": 3,
        "profilestate": 1,
        "personaname": "Johnix CSGOROOT.COM",
        "lastlogoff": 1494286114,
        "commentpermission": 1,
        "profileurl": "http://steamcommunity.com/id/johnix1337/",
        "avatar": "https://steamcdn-a.akamaihd.net/steamcommunity/public/images/avatars/73/739c59b91e9f2839c72375764b37dd8636a3bd4f.jpg",
        "avatarmedium": "https://steamcdn-a.akamaihd.net/steamcommunity/public/images/avatars/73/739c59b91e9f2839c72375764b37dd8636a3bd4f_medium.jpg",
        "avatarfull": "https://steamcdn-a.akamaihd.net/steamcommunity/public/images/avatars/73/739c59b91e9f2839c72375764b37dd8636a3bd4f_full.jpg",
        "personastate": 0,
        "realname": "Jan",
        "primaryclanid": "103582791439702413",
        "timecreated": 1277734310,
        "personastateflags": 0,
        "loccountrycode": "DE",
        "locstatecode": "02",
        "loccityid": 13934
      },
      {
        "steamid": "76561198027123396",
        "communityvisibilitystate": 3,
        "profilestate": 1,
        "personaname": "Johnix CSGOROOT.COM",
        "lastlogoff": 1494286114,
        "commentpermission": 1,
        "profileurl": "http://steamcommunity.com/id/johnix1337/",
        "avatar": "https://steamcdn-a.akamaihd.net/steamcommunity/public/images/avatars/73/739c59b91e9f2839c72375764b37dd8636a3bd4f.jpg",
        "avatarmedium": "https://steamcdn-a.akamaihd.net/steamcommunity/public/images/avatars/73/739c59b91e9f2839c72375764b37dd8636a3bd4f_medium.jpg",
        "avatarfull": "https://steamcdn-a.akamaihd.net/steamcommunity/public/images/avatars/73/739c59b91e9f2839c72375764b37dd8636a3bd4f_full.jpg",
        "personastate": 0,
        "realname": "Jan",
        "primaryclanid": "103582791439702413",
        "timecreated": 1277734310,
        "personastateflags": 0,
        "loccountrycode": "DE",
        "locstatecode": "02",
        "loccityid": 13934
      },
      {
        "steamid": "76561198027123396",
        "communityvisibilitystate": 3,
        "profilestate": 1,
        "personaname": "Johnix CSGOROOT.COM",
        "lastlogoff": 1494286114,
        "commentpermission": 1,
        "profileurl": "http://steamcommunity.com/id/johnix1337/",
        "avatar": "https://steamcdn-a.akamaihd.net/steamcommunity/public/images/avatars/73/739c59b91e9f2839c72375764b37dd8636a3bd4f.jpg",
        "avatarmedium": "https://steamcdn-a.akamaihd.net/steamcommunity/public/images/avatars/73/739c59b91e9f2839c72375764b37dd8636a3bd4f_medium.jpg",
        "avatarfull": "https://steamcdn-a.akamaihd.net/steamcommunity/public/images/avatars/73/739c59b91e9f2839c72375764b37dd8636a3bd4f_full.jpg",
        "personastate": 0,
        "realname": "Jan",
        "primaryclanid": "103582791439702413",
        "timecreated": 1277734310,
        "personastateflags": 0,
        "loccountrycode": "DE",
        "locstatecode": "02",
        "loccityid": 13934
      }
    ]

  }
}